{
	"id": "d8abd2f1-0b69-495d-9b7d-2bcfeea6fa5f",
	"name": "iptiq_Environment",
	"values": [
		{
			"key": "id",
			"value": "2",
			"type": "default",
			"enabled": true
		},
		{
			"key": "name",
			"value": "Khadija",
			"type": "default",
			"enabled": true
		},
		{
			"key": "job",
			"value": "QA",
			"type": "default",
			"enabled": true
		}
	],
	"_postman_variable_scope": "environment",
	"_postman_exported_at": "2022-03-25T08:05:59.703Z",
	"_postman_exported_using": "Postman/9.15.4"
}